Data Wrangling in R
…
---

## Indexing data frames/tibbles

We can also use square brackets: `dataframe[<rows>,<columns>]`

```r
pits_data[,5] # index all rows and 5th column
```

```
## # A tibble: 91 × 1
##    Segment
##    <fct>  
##  1 Outside
##  2 Outside
##  3 Inside 
##  4 Inside 
##  5 Inside 
##  6 Inside 
##  7 Inside 
##  8 Inside 
##  9 Outside
## 10 Outside
## # … with 81 more rows
```
…
More interesting would be to see if there is a difference between houses
located `Inside` or `Outside` the "white wall".

--

To achieve this, we could `filter` the data before taking the `mean`:

--

```r
filter(pits_data, Inside == "Inside") # filter with conditional statement
```

```
## # A tibble: 38 × 13
##     East South Length Width Segment Inside  Area Points Abraders Discs Earplugs
##    <dbl> <dbl>  <dbl> <dbl> <fct>   <fct>  <dbl>  <dbl>    <dbl> <dbl>    <dbl>
##  1  890.  163.   17    18   Inside  Inside  306       1        0     1        0
##  2  924.  193.   21    21.5 Inside  Inside  452.      2        1     1        1
##  3  912.  217.   20.5  20   Inside  Inside  410       3        2     2        1
##  4  940.  251.   16.5  16   Inside  Inside  264       0        0     0        0
##  5  948.  229.   18    19   Inside  Inside  342       5        0     5        0
##  6  962.  212.   21    19   Inside  Inside  399      13        0     0        2
##  7  765.  297.   16.5  17   Inside  Inside  280.      3        1     2        1
##  8  787.  256.   21    20.5 Inside  Inside  430.      8        1     7       NA
##  9  796.  228.   19    19   Inside  Inside  361       7        1    11        1
## 10  809.  204.   20    19   Inside  Inside  380       6        7     4        0
## # … with 28 more rows, and 2 more variables: Effigies <dbl>, Ceramics <dbl>
```
…
--

```r
pits_data %>%
  rowwise() %>% # we want to calculate each row separately
  mutate(total = sum(
    c_across(Points:Ceramics), # we want to sum these variables
    na.rm = T))
```

--

```
## # A tibble: 91 × 10
## # Rowwise: 
##     East South  Area Points Abraders Discs Earplugs Effigies Ceramics total
##    <dbl> <dbl> <dbl>  <dbl>    <dbl> <dbl>    <dbl>    <dbl>    <dbl> <dbl>
##  1  901.  75.1  144       0        1     0        0        0        0     1
##  2  973.  81.3  256       0        0     0        0        1        0     1
##  3  890. 163.   306       1        0     1        0        1        1     4
##  4  924. 193.   452.      2        1     1        1        0        5    10
##  5  912. 217.   410       3        2     2        1        0        4    12
##  6  940. 251.   264       0        0     0        0        0        0     0
##  7  948. 229.   342       5        0     5        0        0        4    14
##  8  962. 212.   399      13        0     0        2        2       12    29
##  9  979. 194.    60       0        0     0        0        0        0     0
## 10  992. 153.   217       1        0     0        0        1        0     2
## # … with 81 more rows
```

---

## New variables

The 'tidyverse' way is not always easiest...

```r
pits_data$total <- rowSums(pits_data[,8:13], na.rm = T)
```

```
## # A tibble: 91 × 9
##     East South  Area Points Abraders Discs Earplugs Effigies Ceramics
##    <dbl> <dbl> <dbl>  <dbl>    <dbl> <dbl>    <dbl>    <dbl>    <dbl>
##  1  901.  75.1  144       0        1     0        0        0        0
##  2  973.  81.3  256       0        0     0        0        1        0
##  3  890. 163.   306       1        0     1        0        1        1
##  4  924. 193.   452.      2        1     1        1        0        5
##  5  912. 217.   410       3        2     2        1        0        4
##  6  940. 251.   264       0        0     0        0        0        0
##  7  948. 229.   342       5        0     5        0        0        4
##  8  962. 212.   399      13        0     0        2        2       12
##  9  979. 194.    60       0        0     0        0        0        0
## 10  992. 153.   217       1        0     0        0        1        0
## # … with 81 more rows
```
…
- `names_to` is the name of the new column where we want to store the variable names

- `values_to` is the new column where we want to put the values of our variables

--

```r
pits_data_long <- pits_data %>%
  pivot_longer(cols = Points:Ceramics, names_to = "artifact", values_to = "count")
```

--

```
## # A tibble: 546 × 9
##     East South Length Width Segment Location  Area artifact count
##    <dbl> <dbl>  <dbl> <dbl> <fct>   <fct>    <dbl> <chr>    <dbl>
##  1  901.  75.1     12    12 2       Outside    144 Points       0
##  2  901.  75.1     12    12 2       Outside    144 Abraders     1
##  3  901.  75.1     12    12 2       Outside    144 Discs        0
##  4  901.  75.1     12    12 2       Outside    144 Earplugs     0
##  5  901.  75.1     12    12 2       Outside    144 Effigies     0
##  6  901.  75.1     12    12 2       Outside    144 Ceramics     0
##  7  973.  81.3     16    16 2       Outside    256 Points       0
##  8  973.  81.3     16    16 2       Outside    256 Abraders     0
##  9  973.  81.3     16    16 2       Outside    256 Discs        0
## 10  973.  81.3     16    16 2       Outside    256 Earplugs     0
## # … with 536 more rows
```
…
## Pivoting

We can restore it to the wide format using `pivot_wider`

We use `names_from` to re-create the variable names

and `values_from` to re-create the values.

```r
pits_data_long %>%
  pivot_wider(names_from = artifact, values_from = count)
```

```
## # A tibble: 91 × 13
##     East South Length Width Segment Location  Area Points Abraders Discs
##    <dbl> <dbl>  <dbl> <dbl> <fct>   <fct>    <dbl>  <dbl>    <dbl> <dbl>
##  1  901.  75.1   12    12   2       Outside   144       0        1     0
##  2  973.  81.3   16    16   2       Outside   256       0        0     0
##  3  890. 163.    17    18   1       Inside    306       1        0     1
##  4  924. 193.    21    21.5 1       Inside    452.      2        1     1
##  5  912. 217.    20.5  20   1       Inside    410       3        2     2
##  6  940. 251.    16.5  16   1       Inside    264       0        0     0
##  7  948. 229.    18    19   1       Inside    342       5        0     5
##  8  962. 212.    21    19   1       Inside    399      13        0     0
##  9  979. 194.     7.5   8   2       Outside    60       0        0     0
## 10  992. 153.    19    15.5 2       Outside   217       1        0     0
## # … with 81 more rows, and 3 more variables: Earplugs <dbl>, Effigies <dbl>,
## #   Ceramics <dbl>
```
…
