Data Visualisation
…
.pull-left[

## Anatomy of a ggplot

```r
pits_data # <DATA>
```

]

.pull-right[

```
## # A tibble: 91 × 14
##     East South Length Width Segment Location  Area Points Abraders Discs
##    <dbl> <dbl>  <dbl> <dbl> <fct>   <chr>    <dbl>  <dbl>    <dbl> <dbl>
##  1  901.  75.1   12    12   2       Outside   144       0        1     0
##  2  973.  81.3   16    16   2       Outside   256       0        0     0
##  3  890. 163.    17    18   1       Inside    306       1        0     1
##  4  924. 193.    21    21.5 1       Inside    452.      2        1     1
##  5  912. 217.    20.5  20   1       Inside    410       3        2     2
##  6  940. 251.    16.5  16   1       Inside    264       0        0     0
##  7  948. 229.    18    19   1       Inside    342       5        0     5
##  8  962. 212.    21    19   1       Inside    399      13        0     0
##  9  979. 194.     7.5   8   2       Outside    60       0        0     0
## 10  992. 153.    19    15.5 2       Outside   217       1        0     0
## # … with 81 more rows, and 4 more variables: Earplugs <dbl>, Effigies <dbl>,
## #   Ceramics <dbl>, total <dbl>
```
…
We need a way to easily separate by artifacts.

--

Luckily we already have a data frame that could be useful:

--

```r
pits_data_long
```

```
## # A tibble: 637 × 9
##     East South Length Width Segment Location  Area artifact count
##    <dbl> <dbl>  <dbl> <dbl>   <dbl> <chr>    <dbl> <chr>    <dbl>
##  1  901.  75.1     12    12       2 Outside    144 Points       0
##  2  901.  75.1     12    12       2 Outside    144 Abraders     1
##  3  901.  75.1     12    12       2 Outside    144 Discs        0
##  4  901.  75.1     12    12       2 Outside    144 Earplugs     0
##  5  901.  75.1     12    12       2 Outside    144 Effigies     0
##  6  901.  75.1     12    12       2 Outside    144 Ceramics     0
##  7  901.  75.1     12    12       2 Outside    144 total        1
##  8  973.  81.3     16    16       2 Outside    256 Points       0
##  9  973.  81.3     16    16       2 Outside    256 Abraders     0
## 10  973.  81.3     16    16       2 Outside    256 Discs        0
## # … with 627 more rows
```
…
